[gd_scene load_steps=11 format=2]

[ext_resource path="res://level/tile.png" type="Texture" id=1]
[ext_resource path="res://player/player.tscn" type="PackedScene" id=2]
[ext_resource path="res://coin/coin.tscn" type="PackedScene" id=3]
[ext_resource path="res://level/tile2.png" type="Texture" id=4]
[ext_resource path="res://door/door.tscn" type="PackedScene" id=5]
[ext_resource path="res://level/level.gd" type="Script" id=6]
[ext_resource path="res://enemy/enemy.tscn" type="PackedScene" id=7]

[sub_resource type="ConvexPolygonShape2D" id=1]
points = PoolVector2Array( 16, 16, 0, 16, 0, 0, 16, 0 )

[sub_resource type="ConvexPolygonShape2D" id=3]
points = PoolVector2Array( 16, 16, 0, 16, 0, 0, 16, 0 )

[sub_resource type="TileSet" id=2]
0/name = "tile.png 0"
0/texture = ExtResource( 1 )
0/tex_offset = Vector2( 0, 0 )
0/modulate = Color( 1, 1, 1, 1 )
0/region = Rect2( 0, 0, 16, 16 )
0/tile_mode = 0
0/occluder_offset = Vector2( 0, 0 )
0/navigation_offset = Vector2( 0, 0 )
0/shape_offset = Vector2( 0, 0 )
0/shape_transform = Transform2D( 1, 0, 0, 1, 0, 0 )
0/shape = SubResource( 1 )
0/shape_one_way = false
0/shape_one_way_margin = 1.0
0/shapes = [ {
"autotile_coord": Vector2( 0, 0 ),
"one_way": false,
"one_way_margin": 1.0,
"shape": SubResource( 1 ),
"shape_transform": Transform2D( 1, 0, 0, 1, 0, 0 )
} ]
0/z_index = 0
1/name = "tile2.png 1"
1/texture = ExtResource( 4 )
1/tex_offset = Vector2( 0, 0 )
1/modulate = Color( 1, 1, 1, 1 )
1/region = Rect2( 0, 0, 16, 16 )
1/tile_mode = 0
1/occluder_offset = Vector2( 0, 0 )
1/navigation_offset = Vector2( 0, 0 )
1/shape_offset = Vector2( 0, 0 )
1/shape_transform = Transform2D( 1, 0, 0, 1, 0, 0 )
1/shape = SubResource( 3 )
1/shape_one_way = false
1/shape_one_way_margin = 1.0
1/shapes = [ {
"autotile_coord": Vector2( 0, 0 ),
"one_way": false,
"one_way_margin": 1.0,
"shape": SubResource( 3 ),
"shape_transform": Transform2D( 1, 0, 0, 1, 0, 0 )
} ]
1/z_index = 0

[node name="level" type="Node2D"]
script = ExtResource( 6 )

[node name="player" parent="." groups=["player"] instance=ExtResource( 2 )]
position = Vector2( 34, 215 )

[node name="enemy" parent="." instance=ExtResource( 7 )]
position = Vector2( 166, 168 )

[node name="coin" parent="." instance=ExtResource( 3 )]
position = Vector2( 100, 210 )

[node name="coin2" parent="." instance=ExtResource( 3 )]
position = Vector2( 285, 182 )

[node name="coin3" parent="." instance=ExtResource( 3 )]
position = Vector2( 181, 162 )

[node name="coin4" parent="." instance=ExtResource( 3 )]
position = Vector2( 134, 136 )

[node name="door" parent="." instance=ExtResource( 5 )]
position = Vector2( 247, 136 )
z_index = 0
collision_layer = 1

[node name="TileMap" type="TileMap" parent="."]
position = Vector2( 0, 1 )
tile_set = SubResource( 2 )
cell_size = Vector2( 16, 16 )
collision_layer = 4
collision_mask = 11
format = 1
tile_data = PoolIntArray( 0, 1, 0, 1, 1, 0, 2, 1, 0, 3, 1, 0, 4, 1, 0, 5, 1, 0, 6, 1, 0, 7, 1, 0, 8, 1, 0, 9, 1, 0, 10, 1, 0, 11, 1, 0, 12, 1, 0, 13, 1, 0, 14, 1, 0, 15, 1, 0, 16, 1, 0, 17, 1, 0, 18, 1, 0, 19, 1, 0, 65536, 1, 0, 65555, 1, 0, 131072, 1, 0, 131080, 1, 0, 131081, 1, 0, 131082, 1, 0, 131091, 1, 0, 196608, 1, 0, 196611, 1, 0, 196612, 1, 0, 196613, 1, 0, 196620, 1, 0, 196621, 1, 0, 196622, 1, 0, 196627, 1, 0, 262144, 1, 0, 262161, 1, 0, 262162, 1, 0, 262163, 1, 0, 327680, 1, 0, 327681, 1, 0, 327682, 1, 0, 327683, 1, 0, 327699, 1, 0, 393216, 1, 0, 393229, 1, 0, 393230, 1, 0, 393235, 1, 0, 458752, 1, 0, 458754, 1, 0, 458755, 1, 0, 458756, 1, 0, 458757, 1, 0, 458769, 1, 0, 458770, 1, 0, 458771, 1, 0, 524288, 1, 0, 524298, 1, 0, 524307, 1, 0, 589824, 1, 0, 589832, 1, 0, 589833, 1, 0, 589839, 1, 0, 589840, 1, 0, 589843, 1, 0, 655360, 1, 0, 655377, 1, 0, 655379, 1, 0, 720896, 1, 0, 720901, 1, 0, 720902, 1, 0, 720903, 1, 0, 720906, 1, 0, 720907, 1, 0, 720915, 1, 0, 786432, 1, 0, 786436, 1, 0, 786448, 1, 0, 786449, 1, 0, 786450, 1, 0, 786451, 1, 0, 851968, 1, 0, 851987, 1, 0, 917504, 1, 0, 917505, 1, 0, 917506, 1, 0, 917507, 1, 0, 917508, 1, 0, 917509, 1, 0, 917510, 1, 0, 917511, 1, 0, 917512, 1, 0, 917513, 1, 0, 917514, 1, 0, 917515, 1, 0, 917516, 1, 0, 917517, 1, 0, 917519, 1, 0, 917520, 1, 0, 917521, 1, 0, 917522, 1, 0, 917523, 1, 0 )

[connection signal="body_entered" from="coin" to="door" method="_on_coin_body_entered"]
[connection signal="body_entered" from="door" to="." method="_on_door_body_entered"]
